{
    "id": "c0c6d23d-8f45-445b-8b55-f10fb26af25d",
    "schema": "https://metadata.datadrivendiscovery.org/schemas/v0/pipeline.json",
    "created": "2020-11-14T21:50:02.076667Z",
    "inputs": [
        {
            "name": "inputs"
        }
    ],
    "outputs": [
        {
            "data": "steps.0.produce",
            "name": "Predictions"
        }
    ],
    "steps": [
        {
            "type": "PRIMITIVE",
            "primitive": {
                "id": "ff22e721-e4f5-32c9-ab51-b90f32603a56",
                "version": "0.1.0",
                "python_path": "d3m.primitives.graph_matching.seeded_graph_matching.JHU",
                "name": "jhu.sgm",
                "digest": "3d15dd7e29070a12bda24f84704f7ef0653b22459ba37c2daae6f21b5e232fd4"
            },
            "arguments": {
                "inputs": {
                    "type": "CONTAINER",
                    "data": "inputs.0"
                }
            },
            "outputs": [
                {
                    "id": "produce"
                }
            ]
        }
    ],
    "digest": "41a2a7330a334e40fbafab93e1e957badcd522bdc9d956702f90f5ebe86ba3f7"
}