{
    "id": "9f6a94d9-50e7-454d-8d5b-fde137d9ca6e",
    "schema": "https://metadata.datadrivendiscovery.org/schemas/v0/pipeline.json",
    "created": "2020-06-09T23:58:37.530482Z",
    "inputs": [
        {
            "name": "inputs"
        }
    ],
    "outputs": [
        {
            "data": "steps.1.produce",
            "name": "output"
        }
    ],
    "steps": [
        {
            "type": "PRIMITIVE",
            "primitive": {
                "id": "ae0797506-ea7b-4a7f-a7e4-2f91e2082f05",
                "version": "0.4.0",
                "python_path": "d3m.primitives.data_transformation.load_graphs.DistilGraphLoader",
                "name": "Load graphs into a parseable object"
            },
            "arguments": {
                "inputs": {
                    "type": "CONTAINER",
                    "data": "inputs.0"
                }
            },
            "outputs": [
                {
                    "id": "produce"
                },
                {
                    "id": "produce_target"
                }
            ]
        },
        {
            "type": "PRIMITIVE",
            "primitive": {
                "id": "8baea8e6-9d3a-46d7-acf1-04fd593dcd37",
                "version": "0.4.0",
                "python_path": "d3m.primitives.graph_matching.seeded_graph_matching.DistilSeededGraphMatcher",
                "name": "SeededGraphMatcher"
            },
            "arguments": {
                "inputs": {
                    "type": "CONTAINER",
                    "data": "steps.0.produce"
                },
                "outputs": {
                    "type": "CONTAINER",
                    "data": "steps.0.produce_target"
                }
            },
            "outputs": [
                {
                    "id": "produce"
                }
            ],
            "hyperparams": {
                "metric": {
                    "type": "VALUE",
                    "data": "accuracy"
                }
            }
        }
    ],
    "digest": "3ac45646c9f1512a4eef0cba77e2bee1d83c901455619ef227d1ab5900ca4957"
}
