{
    "id": "120bd1a9-b40e-44cb-938b-5631f4ce3371",
    "schema": "https://metadata.datadrivendiscovery.org/schemas/v0/pipeline.json",
    "created": "2020-11-14T21:49:45.119139Z",
    "inputs": [
        {
            "name": "inputs"
        }
    ],
    "outputs": [
        {
            "data": "steps.3.produce",
            "name": "Predictions"
        }
    ],
    "steps": [
        {
            "type": "PRIMITIVE",
            "primitive": {
                "id": "4b42ce1e-9b98-4a25-b68e-fad13311eb65",
                "version": "0.3.0",
                "python_path": "d3m.primitives.data_transformation.dataset_to_dataframe.Common",
                "name": "Extract a DataFrame from a Dataset",
                "digest": "8457eeb19b44f5b26a5fb721a51087d618962a35f0aff17f4ad25d341a2170f2"
            },
            "arguments": {
                "inputs": {
                    "type": "CONTAINER",
                    "data": "inputs.0"
                }
            },
            "outputs": [
                {
                    "id": "produce"
                }
            ]
        },
        {
            "type": "PRIMITIVE",
            "primitive": {
                "id": "4b42ce1e-9b98-4a25-b68e-fad13311eb65",
                "version": "0.3.0",
                "python_path": "d3m.primitives.data_transformation.dataset_to_dataframe.Common",
                "name": "Extract a DataFrame from a Dataset",
                "digest": "8457eeb19b44f5b26a5fb721a51087d618962a35f0aff17f4ad25d341a2170f2"
            },
            "arguments": {
                "inputs": {
                    "type": "CONTAINER",
                    "data": "inputs.0"
                }
            },
            "outputs": [
                {
                    "id": "produce"
                }
            ],
            "hyperparams": {
                "dataframe_resource": {
                    "type": "VALUE",
                    "data": "1"
                }
            }
        },
        {
            "type": "PRIMITIVE",
            "primitive": {
                "id": "4b42ce1e-9b98-4a25-b68e-fad13311eb65",
                "version": "0.3.0",
                "python_path": "d3m.primitives.data_transformation.dataset_to_dataframe.Common",
                "name": "Extract a DataFrame from a Dataset",
                "digest": "8457eeb19b44f5b26a5fb721a51087d618962a35f0aff17f4ad25d341a2170f2"
            },
            "arguments": {
                "inputs": {
                    "type": "CONTAINER",
                    "data": "inputs.0"
                }
            },
            "outputs": [
                {
                    "id": "produce"
                }
            ],
            "hyperparams": {
                "dataframe_resource": {
                    "type": "VALUE",
                    "data": "2"
                }
            }
        },
        {
            "type": "PRIMITIVE",
            "primitive": {
                "id": "94e32827-2c28-4d79-9046-90e5e0999b1b",
                "version": "0.1.0",
                "python_path": "d3m.primitives.graph_matching.euclidean_nomination.JHU",
                "name": "jhu.euclidean_nomination",
                "digest": "9b2b495e4f36c7f985c10bd2f438842727e9e9dc8567ffccd1198f6d1e3ba601"
            },
            "arguments": {
                "inputs_1": {
                    "type": "CONTAINER",
                    "data": "steps.1.produce"
                },
                "inputs_2": {
                    "type": "CONTAINER",
                    "data": "steps.2.produce"
                },
                "reference": {
                    "type": "CONTAINER",
                    "data": "steps.0.produce"
                }
            },
            "outputs": [
                {
                    "id": "produce"
                }
            ]
        }
    ],
    "digest": "488b89e3b5ef0b79abb7114623f7fb6b6af75161e34fba8a9b7f2e39ba81e468"
}