{
    "id":"3739a517-d56c-430b-a05f-e6892006aacc",
    "schema":"https://metadata.datadrivendiscovery.org/schemas/v0/pipeline.json",
    "created":"2020-02-12T00:38:06.749427Z",
    "inputs":[
        {
            "name":"input dataset"
        }
    ],
    "outputs":[
        {
            "data":"steps.6.produce",
            "name":"predictions of input dataset"
        }
    ],
    "steps":[
        {
            "type":"PRIMITIVE",
            "primitive":{
                "id":"f31f8c1f-d1c5-43e5-a4b2-2ae4a761ef2e",
                "version":"0.2.0",
                "python_path":"d3m.primitives.data_transformation.denormalize.Common",
                "name":"Denormalize datasets",
                "digest":"6c1cc604302d7418145f405efe5ae124755cab6da2b66cb53240b74e2b140a1e"
            },
            "arguments":{
                "inputs":{
                    "type":"CONTAINER",
                    "data":"inputs.0"
                }
            },
            "outputs":[
                {
                    "id":"produce"
                }
            ]
        },
        {
            "type":"PRIMITIVE",
            "primitive":{
                "id":"4b42ce1e-9b98-4a25-b68e-fad13311eb65",
                "version":"0.3.0",
                "python_path":"d3m.primitives.data_transformation.dataset_to_dataframe.Common",
                "name":"Extract a DataFrame from a Dataset",
                "digest":"990784f527a78250fcab70af9714314490e91f9a5916eb38834d74e8c38f435b"
            },
            "arguments":{
                "inputs":{
                    "type":"CONTAINER",
                    "data":"steps.0.produce"
                }
            },
            "outputs":[
                {
                    "id":"produce"
                }
            ]
        },
        {
            "type":"PRIMITIVE",
            "primitive":{
                "id":"4503a4c6-42f7-45a1-a1d4-ed69699cf5e1",
                "version":"0.4.0",
                "python_path":"d3m.primitives.data_transformation.extract_columns_by_semantic_types.Common",
                "name":"Extracts columns by semantic type",
                "digest":"591d3ee40b266bda04fa345aeea7b56d81db182fb144cde164e02be019a05f10"
            },
            "arguments":{
                "inputs":{
                    "type":"CONTAINER",
                    "data":"steps.1.produce"
                }
            },
            "outputs":[
                {
                    "id":"produce"
                }
            ],
            "hyperparams":{
                "semantic_types":{
                    "type":"VALUE",
                    "data":[
                        "https://metadata.datadrivendiscovery.org/types/TrueTarget"
                    ]
                }
            }
        },
        {
            "type":"PRIMITIVE",
            "primitive":{
                "id":"7ddf2fd8-2f7f-4e53-96a7-0d9f5aeecf93",
                "version":"1.5.3",
                "python_path":"d3m.primitives.data_transformation.to_numeric.DSBOX",
                "name":"ISI DSBox To Numeric DataFrame",
                "digest":"7f92c7ad8efa978ae1dcda8f3c7fb9cdea0f269d08c329557f3ffcb82193f73b"
            },
            "arguments":{
                "inputs":{
                    "type":"CONTAINER",
                    "data":"steps.2.produce"
                }
            },
            "outputs":[
                {
                    "id":"produce"
                }
            ],
            "hyperparams":{
                "drop_non_numeric_columns":{
                    "type":"VALUE",
                    "data":false
                }
            }
        },
        {
            "type":"PRIMITIVE",
            "primitive":{
                "id":"dsbox-featurizer-timeseries-to-dataframe",
                "version":"1.5.3",
                "python_path":"d3m.primitives.data_preprocessing.time_series_to_list.DSBOX",
                "name":"DSBox Timeseries Featurizer dataframe to List Transformer",
                "digest":"c580b228b9b1cbeb2ab41b2656e8d0ed81ca4327cc03ab64289b56d57b9469e8"
            },
            "arguments":{
                "inputs":{
                    "type":"CONTAINER",
                    "data":"steps.1.produce"
                }
            },
            "outputs":[
                {
                    "id":"produce"
                }
            ]
        },
        {
            "type":"PRIMITIVE",
            "primitive":{
                "id":"dsbox.timeseries_featurization.random_projection",
                "version":"1.5.3",
                "python_path":"d3m.primitives.feature_extraction.random_projection_timeseries_featurization.DSBOX",
                "name":"DSBox random projection timeseries featurization ",
                "digest":"09d01065d16e53b0a875c0cbc0e73e7c5e08ad6a7509377078989c8b1e7168ec"
            },
            "arguments":{
                "inputs":{
                    "type":"CONTAINER",
                    "data":"steps.4.produce"
                }
            },
            "outputs":[
                {
                    "id":"produce"
                }
            ],
            "hyperparams":{
                "generate_metadata":{
                    "type":"VALUE",
                    "data":true
                }
            }
        },
        {
            "type":"PRIMITIVE",
            "primitive":{
                "id":"1dd82833-5692-39cb-84fb-2455683075f3",
                "version":"2019.11.13",
                "python_path":"d3m.primitives.classification.random_forest.SKlearn",
                "name":"sklearn.ensemble.forest.RandomForestClassifier",
                "digest":"93abe4b22214ba6202c13c6a2fe5b2b4d03cdc28a78fa02b6f2759e7b125eaed"
            },
            "arguments":{
                "inputs":{
                    "type":"CONTAINER",
                    "data":"steps.5.produce"
                },
                "outputs":{
                    "type":"CONTAINER",
                    "data":"steps.3.produce"
                }
            },
            "outputs":[
                {
                    "id":"produce"
                }
            ],
            "hyperparams":{
                "add_index_columns":{
                    "type":"VALUE",
                    "data":true
                },
                "use_semantic_types":{
                    "type":"VALUE",
                    "data":true
                }
            }
        }
    ],
    "name":"Default_timeseries_collection_template:140613610325408",
    "description":"",
    "digest":"a43ea8e5f9579bc7701b6ea020e79a3e658aae14ee24ed76486f52e0e6f4ee7e"
}