{
    "id": "d82e7bb7-d36e-4735-9a3b-bd55c3cf37a8",
    "schema": "https://metadata.datadrivendiscovery.org/schemas/v0/pipeline.json",
    "created": "2020-07-19T20:48:53.789416Z",
    "inputs": [
        {
            "name": "inputs"
        }
    ],
    "outputs": [
        {
            "data": "steps.5.produce",
            "name": "output predictions"
        }
    ],
    "steps": [
        {
            "type": "PRIMITIVE",
            "primitive": {
                "id": "f31f8c1f-d1c5-43e5-a4b2-2ae4a761ef2e",
                "version": "0.2.0",
                "python_path": "d3m.primitives.data_transformation.denormalize.Common",
                "name": "Denormalize datasets",
                "digest": "5ec2ce5eeaaada3fad7735605b8d481a8b101d4d3d8cff87fc619ade414901e7"
            },
            "arguments": {
                "inputs": {
                    "type": "CONTAINER",
                    "data": "inputs.0"
                }
            },
            "outputs": [
                {
                    "id": "produce"
                }
            ]
        },
        {
            "type": "PRIMITIVE",
            "primitive": {
                "id": "4b42ce1e-9b98-4a25-b68e-fad13311eb65",
                "version": "0.3.0",
                "python_path": "d3m.primitives.data_transformation.dataset_to_dataframe.Common",
                "name": "Extract a DataFrame from a Dataset",
                "digest": "f64a23466b0e4490b5fdef630a5d1ecb5cfd9bbd0c34c8ccb3dbd557b4d5a918"
            },
            "arguments": {
                "inputs": {
                    "type": "CONTAINER",
                    "data": "steps.0.produce"
                }
            },
            "outputs": [
                {
                    "id": "produce"
                }
            ]
        },
        {
            "type": "PRIMITIVE",
            "primitive": {
                "id": "e193afa1-b45e-4d29-918f-5bb1fa3b88a7",
                "version": "0.2.0",
                "python_path": "d3m.primitives.schema_discovery.profiler.Common",
                "name": "Determine missing semantic types for columns automatically",
                "digest": "09a959be9f65330422bc66b1c0e207cc2981ca0aa8ee7e5b12b246937984f652"
            },
            "arguments": {
                "inputs": {
                    "type": "CONTAINER",
                    "data": "steps.1.produce"
                }
            },
            "outputs": [
                {
                    "id": "produce"
                }
            ]
        },
        {
            "type": "PRIMITIVE",
            "primitive": {
                "id": "37a1f243-8b80-4b87-a5f9-a3c25984995c",
                "version": "0.1.0",
                "python_path": "d3m.primitives.feature_extraction.vggnet_cnn.UBC",
                "name": "VGG16 Convolutional Neural Network",
                "digest": "e5b53c171767cb96794b391cc9552cc9ea1a515b7a49b473bd2c388451e980f9"
            },
            "arguments": {
                "inputs": {
                    "type": "CONTAINER",
                    "data": "steps.2.produce"
                },
                "outputs": {
                    "type": "CONTAINER",
                    "data": "steps.1.produce"
                }
            },
            "outputs": [
                {
                    "id": "produce"
                }
            ],
            "hyperparams": {
                "feature_extract_only": {
                    "type": "VALUE",
                    "data": true
                },
                "include_top": {
                    "type": "VALUE",
                    "data": true
                }
            }
        },
        {
            "type": "PRIMITIVE",
            "primitive": {
                "id": "7288e169-5c2b-434a-96f8-cb2144e7f9cc",
                "version": "0.1.0",
                "python_path": "d3m.primitives.regression.linear_regression.UBC",
                "name": "Bayesian Linear Regression",
                "digest": "4b621302c610784922a57ae9ead87c58732359a6fd6c7748e612a5cd3b0eaf28"
            },
            "arguments": {
                "inputs": {
                    "type": "CONTAINER",
                    "data": "steps.3.produce"
                },
                "outputs": {
                    "type": "CONTAINER",
                    "data": "steps.1.produce"
                }
            },
            "outputs": [
                {
                    "id": "produce"
                }
            ],
            "hyperparams": {
                "learning_rate": {
                    "type": "VALUE",
                    "data": 0.001
                },
                "use_gradient_fit": {
                    "type": "VALUE",
                    "data": true
                },
                "minibatch_size": {
                    "type": "VALUE",
                    "data": 10
                },
                "num_iterations": {
                    "type": "VALUE",
                    "data": 1000
                }
            }
        },
        {
            "type": "PRIMITIVE",
            "primitive": {
                "id": "8d38b340-f83f-4877-baaa-162f8e551736",
                "version": "0.3.0",
                "python_path": "d3m.primitives.data_transformation.construct_predictions.Common",
                "name": "Construct pipeline predictions output",
                "digest": "77da1bc7ef57cf3bf6c0d72a8917fb5d337fd05b151a20b31836ddd0c041824b"
            },
            "arguments": {
                "inputs": {
                    "type": "CONTAINER",
                    "data": "steps.4.produce"
                },
                "reference": {
                    "type": "CONTAINER",
                    "data": "steps.1.produce"
                }
            },
            "outputs": [
                {
                    "id": "produce"
                }
            ]
        }
    ],
    "digest": "ee0139e769fe849ccf1cf490e2f7f909082fc7fff84cac02add8b01dd2713edc"
}