{
  "id": "07053593-bce8-4587-ae53-1d4a519b1d53",
  "schema": "https://metadata.datadrivendiscovery.org/schemas/v0/pipeline.json",
  "created": "2019-11-24T18:06:40.508555Z",
  "inputs": [
    {
      "name": "inputs"
    }
  ],
  "outputs": [
    {
      "data": "steps.3.produce",
      "name": "output predictions"
    }
  ],
  "steps": [
    {
      "type": "PRIMITIVE",
      "primitive": {
        "id": "4b42ce1e-9b98-4a25-b68e-fad13311eb65",
        "version": "0.3.0",
        "python_path": "d3m.primitives.data_transformation.dataset_to_dataframe.Common",
        "name": "Extract a DataFrame from a Dataset"
      },
      "arguments": {
        "inputs": {
          "type": "CONTAINER",
          "data": "inputs.0"
        }
      },
      "outputs": [
        {
          "id": "produce"
        }
      ]
    },
    {
      "type": "PRIMITIVE",
      "primitive": {
        "id": "d510cb7a-1782-4f51-b44c-58f0236e47c7",
        "version": "0.5.0",
        "python_path": "d3m.primitives.data_transformation.column_parser.Common",
        "name": "Parses strings into their types"
      },
      "arguments": {
        "inputs": {
          "type": "CONTAINER",
          "data": "steps.0.produce"
        }
      },
      "outputs": [
        {
          "id": "produce"
        }
      ]
    },
    {
      "type": "PRIMITIVE",
      "primitive": {
        "id": "0dbc4b6d-aa57-4f11-ab18-36125880151b",
        "version": "2019.6.7",
        "python_path": "d3m.primitives.regression.bagging.SKlearn",
        "name": "sklearn.ensemble.bagging.BaggingRegressor"
      },
      "arguments": {
        "inputs": {
          "type": "CONTAINER",
          "data": "steps.1.produce"
        },
        "outputs": {
          "type": "CONTAINER",
          "data": "steps.1.produce"
        }
      },
      "outputs": [
        {
          "id": "produce"
        }
      ],
      "hyperparams": {
        "use_semantic_types": {
          "type": "VALUE",
          "data": true
        },
        "add_index_columns": {
          "type": "VALUE",
          "data": true
        }
      }
    },
    {
      "type": "PRIMITIVE",
      "primitive": {
        "id": "8d38b340-f83f-4877-baaa-162f8e551736",
        "version": "0.3.0",
        "python_path": "d3m.primitives.data_transformation.construct_predictions.Common",
        "name": "Construct pipeline predictions output"
      },
      "arguments": {
        "inputs": {
          "type": "CONTAINER",
          "data": "steps.2.produce"
        },
        "reference": {
          "type": "CONTAINER",
          "data": "steps.0.produce"
        }
      },
      "outputs": [
        {
          "id": "produce"
        }
      ]
    }
  ]
}