{
  "id": "d8189376-99cb-4b28-b0d3-855b6529288d",
  "schema": "https://metadata.datadrivendiscovery.org/schemas/v0/pipeline.json",
  "created": "2020-06-26T02:36:35.389123Z",
  "inputs": [
    {
      "name": "inputs"
    }
  ],
  "outputs": [
    {
      "data": "steps.6.produce",
      "name": "output predictions"
    }
  ],
  "steps": [
    {
      "type": "PRIMITIVE",
      "primitive": {
        "id": "4b42ce1e-9b98-4a25-b68e-fad13311eb65",
        "version": "0.3.0",
        "python_path": "d3m.primitives.data_transformation.dataset_to_dataframe.Common",
        "name": "Extract a DataFrame from a Dataset"
      },
      "arguments": {
        "inputs": {
          "type": "CONTAINER",
          "data": "inputs.0"
        }
      },
      "outputs": [
        {
          "id": "produce"
        }
      ]
    },
    {
      "type": "PRIMITIVE",
      "primitive": {
        "id": "d510cb7a-1782-4f51-b44c-58f0236e47c7",
        "version": "0.6.0",
        "python_path": "d3m.primitives.data_transformation.column_parser.Common",
        "name": "Parses strings into their types"
      },
      "arguments": {
        "inputs": {
          "type": "CONTAINER",
          "data": "steps.0.produce"
        }
      },
      "outputs": [
        {
          "id": "produce"
        }
      ]
    },
    {
      "type": "PRIMITIVE",
      "primitive": {
        "id": "4503a4c6-42f7-45a1-a1d4-ed69699cf5e1",
        "version": "0.4.0",
        "python_path": "d3m.primitives.data_transformation.extract_columns_by_semantic_types.Common",
        "name": "Extracts columns by semantic type"
      },
      "arguments": {
        "inputs": {
          "type": "CONTAINER",
          "data": "steps.1.produce"
        }
      },
      "outputs": [
        {
          "id": "produce"
        }
      ],
      "hyperparams": {
        "semantic_types": {
          "type": "VALUE",
          "data": [
            "https://metadata.datadrivendiscovery.org/types/Attribute"
          ]
        }
      }
    },
    {
      "type": "PRIMITIVE",
      "primitive": {
        "id": "4503a4c6-42f7-45a1-a1d4-ed69699cf5e1",
        "version": "0.4.0",
        "python_path": "d3m.primitives.data_transformation.extract_columns_by_semantic_types.Common",
        "name": "Extracts columns by semantic type"
      },
      "arguments": {
        "inputs": {
          "type": "CONTAINER",
          "data": "steps.0.produce"
        }
      },
      "outputs": [
        {
          "id": "produce"
        }
      ],
      "hyperparams": {
        "semantic_types": {
          "type": "VALUE",
          "data": [
            "https://metadata.datadrivendiscovery.org/types/TrueTarget"
          ]
        }
      }
    },
    {
      "type": "PRIMITIVE",
      "primitive": {
        "id": "94c5c918-9ad5-3496-8e52-2359056e0120",
        "version": "2020.6.24",
        "python_path": "d3m.primitives.data_cleaning.missing_indicator.SKlearn",
        "name": "sklearn.impute.MissingIndicator"
      },
      "arguments": {
        "inputs": {
          "type": "CONTAINER",
          "data": "steps.2.produce"
        }
      },
      "outputs": [
        {
          "id": "produce"
        }
      ],
      "hyperparams": {
        "use_semantic_types": {
          "type": "VALUE",
          "data": true
        }
      }
    },
    {
      "type": "PRIMITIVE",
      "primitive": {
        "id": "1dd82833-5692-39cb-84fb-2455683075f3",
        "version": "2020.6.24",
        "python_path": "d3m.primitives.classification.random_forest.SKlearn",
        "name": "sklearn.ensemble.forest.RandomForestClassifier"
      },
      "arguments": {
        "inputs": {
          "type": "CONTAINER",
          "data": "steps.4.produce"
        },
        "outputs": {
          "type": "CONTAINER",
          "data": "steps.3.produce"
        }
      },
      "outputs": [
        {
          "id": "produce"
        }
      ]
    },
    {
      "type": "PRIMITIVE",
      "primitive": {
        "id": "8d38b340-f83f-4877-baaa-162f8e551736",
        "version": "0.3.0",
        "python_path": "d3m.primitives.data_transformation.construct_predictions.Common",
        "name": "Construct pipeline predictions output"
      },
      "arguments": {
        "inputs": {
          "type": "CONTAINER",
          "data": "steps.5.produce"
        },
        "reference": {
          "type": "CONTAINER",
          "data": "steps.0.produce"
        }
      },
      "outputs": [
        {
          "id": "produce"
        }
      ]
    }
  ]
}