{
    "id": "914d7dc5-e1ef-4c9e-b27d-c8963cc750d5",
    "schema": "https://metadata.datadrivendiscovery.org/schemas/v0/pipeline.json",
    "created": "2020-11-14T21:50:31.050595Z",
    "inputs": [
        {
            "name": "inputs"
        }
    ],
    "outputs": [
        {
            "data": "steps.3.produce",
            "name": "Predictions"
        }
    ],
    "steps": [
        {
            "type": "PRIMITIVE",
            "primitive": {
                "id": "cb192a83-63e2-4075-bab9-e6ba1a8365b6",
                "version": "0.1.0",
                "python_path": "d3m.primitives.data_transformation.load_graphs.JHU",
                "name": "Extract a list of Graphs from a Dataset",
                "digest": "bf7cf1f19f8acaa55797fe5c3c1d1d17111c17c23d71b12f33e160eb103c3fbf"
            },
            "arguments": {
                "inputs": {
                    "type": "CONTAINER",
                    "data": "inputs.0"
                }
            },
            "outputs": [
                {
                    "id": "produce"
                }
            ]
        },
        {
            "type": "PRIMITIVE",
            "primitive": {
                "id": "32fec24f-6861-4a4c-88f3-d4ec2bc1b486",
                "version": "0.1.0",
                "python_path": "d3m.primitives.data_preprocessing.largest_connected_component.JHU",
                "name": "jhu.lcc",
                "digest": "3a50c0720507dd53fea03388cc46e6510e7de47b8ae43eb0c101d416672b4411"
            },
            "arguments": {
                "inputs": {
                    "type": "CONTAINER",
                    "data": "steps.0.produce"
                }
            },
            "outputs": [
                {
                    "id": "produce"
                }
            ]
        },
        {
            "type": "PRIMITIVE",
            "primitive": {
                "id": "b940ccbd-9e9b-3166-af50-210bfd79251b",
                "version": "0.1.0",
                "python_path": "d3m.primitives.data_transformation.adjacency_spectral_embedding.JHU",
                "name": "jhu.ase",
                "digest": "07081cc627f45f4f4f7fef21d0d61c9beb61ca8fa8c19612d8a3c1b3201932ff"
            },
            "arguments": {
                "inputs": {
                    "type": "CONTAINER",
                    "data": "steps.1.produce"
                }
            },
            "outputs": [
                {
                    "id": "produce"
                }
            ],
            "hyperparams": {
                "max_dimension": {
                    "type": "VALUE",
                    "data": 5
                },
                "use_attributes": {
                    "type": "VALUE",
                    "data": true
                }
            }
        },
        {
            "type": "PRIMITIVE",
            "primitive": {
                "id": "c9d5da5d-0520-468e-92df-bd3a85bb4fac",
                "version": "0.1.0",
                "python_path": "d3m.primitives.classification.gaussian_classification.JHU",
                "name": "jhu.gclass",
                "digest": "6a33b6253d040ad67d8671401d3f827c091a29d23430cbacd6994aef1fb68bb5"
            },
            "arguments": {
                "inputs": {
                    "type": "CONTAINER",
                    "data": "steps.2.produce"
                }
            },
            "outputs": [
                {
                    "id": "produce"
                }
            ]
        }
    ],
    "digest": "0e83c9ddf5d98c306d7221c4d6059ce23ec0c1ae0503ed90a1bbaff90539752d"
}